% Dados do cardápio de algumas lanchonetes de Campo Grande para a predição do preço do lanche
% 
% 1. Origem dos Dados: 
%   -- Site Delivery Fácil (http://www.deliveryfacil.com) : Áquila, Rodrigo Sanduba e Gold Lanches 
%   -- Site próprio da lanchonete : Patinhas Lanches(http://patinhaslanches.com.br) e Picadinho Lanches(http://www.picadinholanches.com.br)
%   -- Outros: Novinho Lanches(aplicativo: http://galeria.fabricadeaplicativos.com.br/novinho_lanches#gsc.tab=0)
% 
% 2. Informação relevante:
% 	A coleta dos dados foi manual, por isso pode haver erro em função do método. Não foi feito nenhuma análise pra encontrar algum desvio
% 	no dataset apresentado. Numa análise rápida, foi encontrado 69 classes possíveis(preços). Também não foi feito nenhuma alteração ou
% 	análise, iremos tratar disso na segunda entrega.
% 	
% 3. Número de exemplos: 179
% 
% 4. Número de atributos: 15 + o atributo classe
% 
% 5. Informação do atributo:
%    1. lanchonete: lista {rodrigo,aquila,gold,patinhas,picadinho,novinho} nome da lanchonete
%    1. nota: lista {3,4,5} é a nota dada a lanchonete em função da sua infraestrutura(pedido online, localização etc)
%    1. grupo {hamburguer,frango,picanha,file,outro} grupo que o sanduíche pertence
%    1. maioria {true,false} se ele pertence ao intervalo de preço Menor que 18.75 e Maior 8.15, que é a maioria
%    1. numitem: numero de ingredientes do sanduíche
%    1. muitoitem: lista {true,false} se possui número de ingredientes maior que 6
%    2. hamburguer: quantidade de hambúrgueres
%    3. frango : quantidade de frango
%    4. picanha : quantidade de picanha
%    5. file : quantidade de filé
%    6. queijo1 : quantidade de queijo - somente mussarela.
%    7. queijo2 : quantidade de queijos - cheddar, queijo branco e outros tipos de queijo
%    8. catupiry : quantidade de catupiry
%    9. presunto : quantidade de presunto
%    10. salada1 : quantidade de salada simples - alface e tomate
%    11. salada2: quantidade de salada - alface, tomate, milho, rúcula e outros hortaliças e frutas também
%    12. ovo: quantidade de ovos
%    13. bacon: quantidade de bacon
%    14. calabresa: quantidade de calabresa
%    15. salsichas: quantidade de salsicha
%    16. class: preço do lanche
% 
% 6. Atributos não indicados
%    Como para os lanches sempre há pão, pão não foi considerado um atributo necessário.
% 
% 7. Distribuição da classe:
%    69 classes possíveis(preços)
%
@relation 'cardapio'
@attribute lanchonete {rodrigo,aquila,gold,patinhas,picadinho,novinho}
@attribute nota {3,4,5}
@attribute grupo {hamburguer,frango,picanha,file,outro}
@attribute maioria {true,false}
@attribute numitem numeric
@attribute muitoitem {true,false}
@attribute hamburguer numeric
@attribute frango numeric
@attribute picanha numeric
@attribute file numeric
@attribute queijo1 numeric
@attribute queijo2 numeric
@attribute catupiry numeric
@attribute presunto numeric
@attribute salada1 numeric	
@attribute salada2 numeric
@attribute ovo numeric
@attribute bacon numeric
@attribute calabresa numeric
@attribute salsichas numeric
@attribute class numeric
@data
%
% 179 exemplos
%
rodrigo,5,hamburguer,true,6,false,1,0,0,0,1,0,0,0,1,0,1,1,1,0,15.50
rodrigo,5,frango,true,3,false,0,1,0,0,1,0,0,0,1,0,0,0,0,0,11.00
rodrigo,5,hamburguer,true,3,false,2,0,0,0,1,0,0,0,1,0,0,0,0,0,18.00
rodrigo,5,hamburguer,true,3,false,1,0,0,0,1,0,0,1,0,0,0,0,0,0,10.00
rodrigo,5,hamburguer,true,4,false,1,0,0,0,1,0,0,1,1,0,0,0,0,0,10.50
rodrigo,5,hamburguer,true,4,false,1,0,0,0,1,0,0,1,0,1,0,0,0,0,11.00
rodrigo,5,hamburguer,true,5,false,1,0,0,0,1,0,0,1,1,0,1,0,0,0,11.00
rodrigo,5,hamburguer,true,4,false,1,0,0,0,1,0,0,0,1,0,0,1,0,0,12.50
rodrigo,5,hamburguer,true,4,false,1,0,0,0,1,0,0,0,1,0,0,0,1,0,12.50
rodrigo,5,hamburguer,true,5,false,1,0,0,0,1,0,0,0,1,0,1,1,0,0,14.50
rodrigo,5,hamburguer,true,4,false,1,0,0,0,2,0,0,0,1,1,0,0,0,0,15.00
rodrigo,5,hamburguer,true,5,false,1,0,0,0,1,0,0,0,1,1,0,1,0,0,15.00
rodrigo,5,hamburguer,true,4,false,1,0,0,0,1,1,1,0,0,0,0,0,0,0,18.50
rodrigo,5,hamburguer,false,8,true,1,0,0,0,1,0,0,1,1,0,1,1,1,2,19.50
rodrigo,5,hamburguer,false,5,false,2,0,0,0,2,0,0,2,2,0,2,0,0,0,21.00
rodrigo,5,hamburguer,false,5,false,3,0,0,0,3,0,0,3,3,0,3,0,0,0,29.50
rodrigo,5,picanha,true,3,false,0,0,1,0,2,0,0,0,1,0,0,0,0,0,18.00
rodrigo,5,file,true,2,false,0,0,0,1,1,0,0,0,0,0,0,0,0,0,17.00
rodrigo,5,file,true,3,false,0,0,0,1,1,0,0,0,1,0,0,0,0,0,17.50
rodrigo,5,file,true,3,false,0,0,0,1,1,0,0,0,0,1,0,0,0,0,18.00
rodrigo,5,file,true,4,false,0,0,0,1,1,0,0,0,1,0,1,0,0,0,18.00
rodrigo,5,file,true,3,false,0,0,0,1,1,0,0,0,0,1,0,0,0,0,18.00
rodrigo,5,file,false,4,false,0,0,0,1,1,1,0,0,1,0,0,0,0,0,21.00
rodrigo,5,file,false,4,false,0,0,0,1,1,0,0,0,1,1,0,0,0,0,21.00
rodrigo,5,file,false,7,true,0,0,0,1,1,0,0,0,1,0,1,1,1,1,23.50
rodrigo,5,file,false,4,false,0,0,0,2,2,0,0,0,2,0,2,0,0,0,32.00
rodrigo,5,file,false,4,false,0,0,0,1,1,0,0,0,1,1,0,0,0,0,21.00
rodrigo,5,file,false,4,false,0,0,0,1,1,0,0,0,1,0,0,1,0,0,20.00
rodrigo,5,frango,true,3,false,0,1,0,0,1,0,0,0,1,0,0,0,0,0,13.50
rodrigo,5,frango,true,3,false,0,1,0,0,1,0,0,0,0,1,0,0,0,0,14.50
rodrigo,5,frango,true,3,false,0,1,0,0,1,0,0,0,0,1,0,0,0,0,14.50
rodrigo,5,frango,true,4,false,0,1,0,0,1,0,0,0,1,1,0,0,0,0,15.50
rodrigo,5,frango,true,4,false,0,1,0,0,1,0,1,0,1,0,0,0,0,0,16.50
rodrigo,5,frango,false,8,true,0,1,0,0,1,0,0,1,1,0,1,1,1,1,20.00
rodrigo,5,frango,true,4,false,0,1,0,0,1,0,0,0,1,0,0,1,0,0,16.00
rodrigo,5,picanha,true,3,false,0,0,1,0,2,0,0,0,1,0,0,0,0,0,18.50
rodrigo,5,picanha,false,3,false,0,0,1,0,2,0,0,0,0,1,0,0,0,0,19.00
rodrigo,5,picanha,false,4,false,0,0,1,0,2,0,0,0,1,1,0,0,0,0,21.00
aquila,5,hamburguer,true,3,false,1,0,0,0,1,0,0,1,0,0,0,0,0,0,9.20
aquila,5,hamburguer,true,3,false,2,0,0,0,1,0,0,1,0,0,0,0,0,0,13.00
aquila,5,hamburguer,true,2,false,1,0,0,0,0,1,0,0,0,0,0,0,0,0,12.50
aquila,5,hamburguer,true,4,false,1,0,0,0,1,0,0,1,0,1,0,0,0,0,10.70
aquila,5,hamburguer,true,4,false,2,0,0,0,1,0,0,1,0,1,0,0,0,0,14.00
aquila,5,hamburguer,true,5,false,1,0,0,0,1,0,0,1,0,1,1,0,0,0,11.30
aquila,5,hamburguer,true,4,false,1,0,0,0,1,0,0,1,0,0,0,1,0,0,12.00
aquila,5,hamburguer,true,5,false,1,0,0,0,1,0,0,1,0,1,0,1,0,0,13.70
aquila,5,outro,true,4,false,0,0,0,0,1,0,0,1,0,0,1,1,0,0,11.80
aquila,5,hamburguer,true,6,false,1,0,0,0,1,0,0,1,0,1,1,1,0,0,15.20
aquila,5,hamburguer,true,4,false,1,0,0,0,1,0,0,1,0,0,0,0,1,0,12.00
aquila,5,hamburguer,true,5,false,1,0,0,0,1,0,0,1,0,1,0,0,1,0,13.70
aquila,5,hamburguer,true,5,false,1,0,0,0,1,0,0,1,0,0,0,1,1,0,15.30
aquila,5,hamburguer,false,8,true,1,0,0,0,1,0,0,1,0,1,1,1,1,1,19.00
aquila,5,hamburguer,true,5,false,1,0,0,0,1,0,0,1,0,0,1,1,0,0,13.00
aquila,5,hamburguer,true,4,false,1,0,0,0,1,0,0,1,0,0,1,0,0,0,10.60
aquila,5,hamburguer,true,6,false,1,0,0,0,1,0,0,1,0,0,1,0,1,1,15.20
aquila,5,file,true,3,false,0,0,0,1,1,0,0,1,0,0,0,0,0,0,15.40
aquila,5,file,true,4,false,0,0,0,1,1,0,0,1,0,1,0,0,0,0,17.00
aquila,5,file,false,8,true,0,0,0,1,1,0,0,1,0,1,1,1,1,1,22.50
aquila,5,file,true,4,false,0,0,0,1,1,0,0,1,0,0,0,1,0,0,18.60
aquila,5,file,false,5,false,0,0,0,1,1,0,0,1,0,0,1,0,1,0,19.80
aquila,5,file,true,5,false,0,0,0,1,1,0,0,1,0,1,1,0,0,0,18.20
aquila,5,frango,true,3,false,0,1,0,0,1,0,0,1,0,0,0,0,0,0,13.80
aquila,5,frango,true,4,false,0,1,0,0,1,0,0,1,0,1,0,0,0,0,15.30
aquila,5,frango,false,8,true,0,1,0,0,1,0,0,1,0,1,1,1,1,1,20.50
aquila,5,frango,true,4,false,0,1,0,0,1,0,0,1,0,0,0,1,0,0,15.30
aquila,5,frango,true,5,false,0,1,0,0,1,0,0,1,0,1,0,1,0,0,17.50
aquila,5,frango,true,4,false,0,1,0,0,1,0,0,1,0,1,0,0,0,0,16.80
aquila,5,hamburguer,true,4,false,1,1,0,0,1,0,0,1,0,0,0,0,0,0,17.40
gold,4,hamburguer,false,3,false,1,0,0,0,1,0,0,1,0,0,0,0,0,0,8.00
gold,4,hamburguer,true,4,false,1,0,0,0,1,0,0,1,1,0,0,0,0,0,8.50
gold,4,hamburguer,true,3,false,1,0,0,0,1,0,0,0,0,0,1,0,0,0,8.50
gold,4,hamburguer,true,4,false,1,0,0,0,1,0,0,1,0,0,1,0,0,0,9.50
gold,4,hamburguer,true,3,false,2,0,0,0,1,0,0,1,0,0,0,0,0,0,11.00
gold,4,hamburguer,true,4,false,1,0,0,0,1,0,0,0,1,0,0,1,0,0,12.00
gold,4,hamburguer,true,5,false,1,0,0,0,1,0,0,1,1,0,0,0,1,0,12.00
gold,4,hamburguer,true,7,true,1,0,0,0,1,0,0,1,1,0,1,1,1,0,13.50
gold,4,hamburguer,true,6,false,1,0,0,0,1,0,0,1,0,0,1,0,1,1,13.50
gold,4,hamburguer,true,9,true,1,0,0,0,1,0,1,1,1,0,1,1,1,1,15.00
gold,4,hamburguer,true,4,false,1,0,0,0,1,0,1,1,0,0,0,0,0,0,9.50
gold,4,frango,true,4,false,0,1,0,0,1,0,1,1,0,0,0,0,0,0,11.50
gold,4,file,true,4,false,0,0,0,1,1,0,1,1,0,0,0,0,0,0,13.50
gold,4,hamburguer,true,4,false,1,0,0,0,1,1,0,1,0,0,0,0,0,0,9.50
gold,4,frango,true,4,false,0,1,0,0,1,1,0,1,0,0,0,0,0,0,11.50
gold,4,file,true,4,false,0,0,0,1,1,1,0,1,0,0,0,0,0,0,13.50
gold,4,file,true,3,false,0,0,0,1,1,0,0,0,1,0,0,0,0,0,13.00
gold,4,file,true,4,false,0,0,0,1,1,0,0,0,1,0,1,0,0,0,13.50
gold,4,file,true,4,false,0,0,0,1,1,0,0,0,1,0,0,1,0,0,14.50
gold,4,file,true,4,false,0,0,0,1,1,0,0,0,1,0,0,0,1,0,14.50
gold,4,file,true,4,false,0,0,0,1,1,0,0,1,0,1,0,0,0,0,15.00
gold,4,file,true,6,false,0,0,0,1,1,0,0,1,0,0,1,0,1,1,16.00
gold,4,file,true,7,true,0,0,0,1,1,0,0,1,1,0,1,1,1,0,16.00
gold,4,file,true,9,true,0,0,0,1,1,0,1,1,1,0,1,1,1,1,18.00
gold,4,picanha,true,3,false,0,0,1,0,1,0,0,0,0,1,0,0,0,0,18.00
gold,4,frango,true,3,false,0,1,0,0,1,0,0,0,1,0,0,0,0,0,11.50
gold,4,frango,true,4,false,0,1,0,0,1,0,0,0,1,0,1,0,0,0,12.00
gold,4,frango,true,4,false,0,1,0,0,1,0,0,0,1,0,0,1,0,0,13.00
gold,4,frango,true,4,false,0,1,0,0,1,0,0,0,1,0,0,0,1,0,13.00
gold,4,frango,true,5,false,0,1,0,0,1,0,0,0,1,0,1,1,0,0,15.00
gold,4,frango,true,6,false,0,1,0,0,1,0,0,1,0,0,1,0,1,1,16.00
gold,4,frango,true,9,true,0,1,0,0,1,0,1,1,0,1,1,1,1,1,17.00
patinhas,4,hamburguer,true,5,false,1,0,0,0,1,0,0,1,1,0,0,1,0,0,11.80
patinhas,4,hamburguer,true,4,false,1,0,0,0,1,0,0,1,1,0,0,0,0,0,8.50
patinhas,4,hamburguer,true,4,false,1,0,0,0,1,0,0,1,0,0,0,1,0,0,9.90
patinhas,4,hamburguer,true,6,false,1,0,0,0,1,0,0,1,1,0,1,1,0,0,13.40
patinhas,4,hamburguer,true,5,false,1,0,0,0,1,0,0,1,0,0,1,1,0,0,10.90
patinhas,4,hamburguer,true,5,false,1,0,0,0,1,0,1,1,0,1,0,0,0,0,12.30
patinhas,4,hamburguer,true,4,false,2,0,0,0,2,0,0,2,2,0,0,0,0,0,13.20
patinhas,4,hamburguer,true,5,false,2,0,0,0,2,0,1,2,2,0,0,0,0,0,14.20
patinhas,4,outro,false,4,false,0,0,0,0,1,0,0,1,1,0,1,0,0,0,7.90
patinhas,4,outro,true,5,false,0,0,0,0,1,0,0,1,1,0,1,1,0,0,8.90
patinhas,4,outro,false,3,false,0,0,0,0,1,0,0,1,0,0,0,0,0,2,5.50
patinhas,4,outro,false,5,false,0,0,0,0,1,0,0,1,1,0,1,0,0,2,6.50
patinhas,4,outro,false,5,false,0,0,0,0,1,0,0,1,0,1,1,0,0,2,7.90
patinhas,4,hamburguer,true,7,true,1,0,0,0,1,0,0,0,1,1,1,1,1,0,15.40
patinhas,4,hamburguer,true,4,false,1,0,0,0,1,0,0,1,0,0,0,0,0,1,9.20
patinhas,4,hamburguer,true,5,false,1,0,0,0,1,0,0,1,1,0,0,0,0,1,10.40
patinhas,4,hamburguer,true,6,false,1,0,0,0,1,0,0,1,0,1,1,0,0,1,13.40
patinhas,4,frango,true,8,true,0,1,0,0,1,0,0,1,0,1,1,1,1,1,18.40
patinhas,4,frango,true,4,false,0,1,0,0,1,0,0,1,0,1,0,0,0,0,12.40
patinhas,4,frango,true,3,false,0,1,0,0,1,0,0,1,0,0,0,0,0,0,10.80
patinhas,4,frango,true,5,false,0,1,0,0,1,0,0,1,0,1,0,1,0,0,13.50
patinhas,4,frango,true,5,false,0,1,0,0,1,0,0,1,1,0,1,0,0,0,12.30
patinhas,4,frango,true,6,false,0,1,0,0,1,0,1,1,0,1,0,0,1,0,12.90
patinhas,4,frango,true,5,false,0,1,0,0,1,0,0,1,0,1,0,0,0,1,12.30
patinhas,4,frango,true,5,false,0,1,0,0,1,0,1,1,0,1,0,0,0,0,14.20
patinhas,4,file,true,5,false,0,0,0,1,1,0,0,1,0,0,1,0,0,1,14.90
patinhas,4,file,true,4,false,0,0,0,1,1,0,0,1,0,0,1,0,0,0,11.90
patinhas,4,file,true,3,false,0,0,0,1,2,0,0,0,0,1,0,0,0,0,15.40
patinhas,4,file,true,4,false,0,0,0,1,1,0,0,1,0,0,1,0,0,0,13.40
patinhas,4,file,true,6,false,0,0,0,1,1,0,0,1,1,0,1,1,0,0,17.60
patinhas,4,file,true,4,false,0,0,0,1,1,0,0,1,1,0,0,0,0,0,14.30
patinhas,4,file,false,11,true,1,1,0,1,1,0,0,1,1,1,1,1,1,1,30.90
patinhas,4,file,true,4,false,0,0,0,1,1,0,0,1,0,0,0,1,0,0,14.90
patinhas,4,file,false,9,true,0,0,0,1,1,0,0,1,1,1,1,1,1,1,26.80
picadinho,3,hamburguer,true,6,false,1,0,0,0,1,0,0,1,1,0,1,0,0,1,10.75
picadinho,3,hamburguer,true,4,false,1,0,0,0,2,0,0,1,1,0,0,0,0,0,9.50
picadinho,3,hamburguer,true,5,false,1,0,0,0,1,0,1,1,1,0,0,0,0,0,10.75
picadinho,3,hamburguer,true,5,false,1,0,0,0,2,0,0,1,1,0,0,1,0,0,10.50
picadinho,3,hamburguer,true,5,false,1,0,0,0,1,0,0,1,1,0,0,0,1,0,10.00
picadinho,3,hamburguer,true,6,false,1,0,0,0,1,0,0,1,0,1,1,0,1,0,11.50
picadinho,3,hamburguer,true,5,false,1,0,0,0,1,0,0,1,0,0,2,1,0,0,12.00
picadinho,3,hamburguer,true,6,false,1,0,0,0,1,0,0,1,0,1,1,0,0,1,11.50
picadinho,3,hamburguer,true,7,true,1,0,0,0,1,0,0,1,1,0,1,0,1,1,11.50
picadinho,3,hamburguer,true,8,true,1,0,0,0,1,0,0,1,1,0,1,1,1,1,13.00
picadinho,3,hamburguer,true,8,true,1,0,0,0,1,0,1,1,0,1,1,1,0,1,14.00
picadinho,3,hamburguer,true,7,true,1,0,0,0,1,0,0,1,0,1,1,0,1,1,14.50
picadinho,3,hamburguer,true,6,false,2,0,0,0,2,0,0,2,2,0,2,0,0,1,15.50
picadinho,3,frango,true,9,true,1,1,0,0,1,0,1,1,0,1,1,0,1,1,15.50
picadinho,3,hamburguer,true,7,true,2,1,0,0,2,0,0,2,1,0,2,0,0,1,16.50
picadinho,3,file,true,2,false,0,0,0,1,2,0,0,0,0,0,0,0,0,0,12.50
picadinho,3,file,true,3,false,0,0,0,1,2,0,0,0,0,0,0,1,0,0,13.50
picadinho,3,file,true,4,false,0,0,0,1,2,0,0,0,1,0,1,0,0,0,13.50
picadinho,3,file,true,6,false,0,0,0,1,2,0,0,0,1,0,1,1,0,1,15.00
picadinho,3,file,true,5,false,0,0,0,1,2,0,0,0,0,1,1,0,1,0,15.00
picadinho,3,file,true,6,false,0,1,0,1,2,0,0,0,1,0,0,1,0,1,16.50
picadinho,3,frango,true,3,false,0,1,0,0,2,0,0,0,1,0,0,0,0,0,10.50
picadinho,3,frango,true,3,false,0,1,0,0,2,0,0,0,0,1,0,0,0,0,11.00
picadinho,3,frango,true,4,false,0,1,0,0,2,0,0,0,1,0,0,1,0,0,12.00
picadinho,3,frango,true,5,false,1,1,0,0,1,0,0,1,1,0,0,0,0,0,13.00
picadinho,3,frango,true,5,false,0,1,0,0,2,0,0,0,0,1,1,0,1,0,14.00
picadinho,3,frango,true,5,false,0,1,0,0,2,0,0,0,1,0,0,1,1,0,14.50
picadinho,3,frango,true,6,false,0,1,0,0,2,0,0,0,1,0,1,1,0,1,15.00
picadinho,3,hamburguer,true,3,false,1,0,0,0,2,0,0,0,1,0,0,0,0,0,9.00
novinho,3,hamburguer,false,3,false,1,0,0,0,1,0,0,1,0,0,0,0,0,0,7.00
novinho,3,hamburguer,false,3,false,1,0,0,0,1,0,0,0,1,0,0,0,0,0,7.00
novinho,3,hamburguer,false,4,false,1,0,0,0,1,0,0,0,1,0,1,0,0,0,8.00
novinho,3,hamburguer,true,5,false,1,0,0,0,1,0,0,1,1,0,0,0,0,1,9.00
novinho,3,hamburguer,true,4,false,1,0,0,0,1,0,0,0,1,0,0,1,0,0,9.00
novinho,3,hamburguer,true,5,false,1,0,0,0,1,0,0,0,1,0,1,1,0,0,10.00
novinho,3,hamburguer,true,4,false,1,0,0,0,1,0,0,0,1,0,0,0,1,0,8.50
novinho,3,hamburguer,true,7,true,1,0,0,0,1,0,0,1,1,0,1,1,0,1,12.50
novinho,3,file,true,3,false,0,0,0,1,1,0,0,0,1,0,0,0,0,0,14.00
novinho,3,file,true,4,false,0,0,0,1,1,0,0,0,1,0,1,0,0,0,15.00
novinho,3,file,true,4,false,0,0,0,1,1,0,0,0,1,0,0,1,0,0,16.50
novinho,3,file,true,4,false,0,0,0,1,1,0,0,0,0,1,1,0,0,0,15.00
novinho,3,file,true,7,true,0,0,0,1,1,0,0,1,1,0,1,1,0,1,18.00
novinho,3,frango,true,3,false,0,1,0,0,1,0,0,0,1,0,0,0,0,0,11.00
novinho,3,frango,true,4,false,0,1,0,0,1,0,0,0,1,0,1,0,0,0,12.00
novinho,3,frango,true,4,false,0,1,0,0,1,0,0,0,1,0,0,1,0,0,13.50
