
      0.7791 * lanchonete=gold,patinhas,aquila,rodrigo +
      0.6467 * lanchonete=patinhas,aquila,rodrigo +
      2.4356 * lanchonete=aquila,rodrigo +
      1.3059 * grupo=hamburguer,frango,file,picanha +
      1.7078 * grupo=frango,file,picanha +
     -3.4859 * grupo=file,picanha +
      1.0912 * maioria=false +
     -0.2147 * numitem +
      3.3992 * hamburguer +
      3.944  * frango +
     11.6632 * picanha +
     10.0082 * file +
      2.9105 * queijo2 +
      1.4327 * catupiry +
      1.4108 * salada1 +
      2.0692 * salada2 +
      1.457  * ovo +
      2.175  * bacon +
      1.8331 * calabresa +
      0.8386 * salsichas +
      2.6267
	  
linear regression	  