@relation 'eleicoes-ms'
@attribute politico	{0,1}
@attribute homem {0,1}	
@attribute superior {0,1}
@attribute solteiro {0,1}
@attribute eleito {ELEITO , NAO}
@attribute faixa1 {A,B,C,D}
@attribute faixa2 {A,B,C,D}
@attribute faixa3 {A,B,C,D}
@attribute class {20Mais, NAO}
@data

1,1,1,0,NAO,A,A,A,20Mais
0,1,1,0,ELEITO,A,A,A,20Mais
0,1,0,0,NAO,B,C,A,NAO
0,1,1,0,NAO,C,C,A,NAO
0,1,0,0,NAO,C,B,A,NAO
0,1,1,0,NAO,C,C,A,NAO
0,1,1,0,NAO,B,C,B,NAO
0,1,1,0,NAO,A,A,B,NAO
0,1,0,1,ELEITO,B,A,B,20Mais
0,1,1,0,NAO,D,C,C,NAO
0,1,0,1,NAO,A,B,B,NAO
0,0,0,1,NAO,D,C,D,NAO
0,1,0,0,NAO,D,B,C,NAO
0,1,1,0,NAO,A,A,A,20Mais
0,1,1,1,NAO,B,D,B,NAO
0,0,0,0,NAO,C,B,C,NAO
0,0,1,0,NAO,B,D,B,NAO
0,0,1,0,NAO,C,B,C,NAO
0,1,0,0,NAO,B,B,C,NAO
0,1,0,0,NAO,C,C,C,NAO
0,1,0,0,NAO,C,D,D,NAO
0,1,0,1,NAO,B,B,B,NAO
0,1,0,0,NAO,A,A,B,NAO
0,1,1,0,NAO,B,C,C,NAO
0,1,0,0,NAO,D,D,B,NAO
0,1,1,0,NAO,B,C,B,NAO
0,0,1,0,ELEITO,A,A,A,20Mais
0,1,1,0,NAO,A,A,B,20Mais
0,1,1,0,NAO,A,D,B,NAO
0,1,1,1,NAO,D,D,D,NAO
1,1,1,0,NAO,C,A,A,NAO
0,1,0,1,NAO,C,C,C,NAO
0,0,1,0,NAO,D,D,C,NAO
1,0,0,0,NAO,D,B,A,NAO
1,1,0,0,NAO,D,B,D,NAO
0,1,1,0,NAO,A,B,A,NAO
0,0,1,0,NAO,A,D,B,NAO
0,1,1,0,NAO,A,A,A,NAO
0,1,1,0,NAO,A,B,A,NAO
1,1,1,1,ELEITO,B,A,B,20Mais
0,1,1,0,NAO,A,A,A,20Mais
0,1,1,0,NAO,A,A,A,20Mais
0,1,1,0,NAO,D,D,A,NAO
0,0,0,1,NAO,D,D,C,NAO
0,1,1,0,NAO,C,B,A,NAO
0,1,1,0,NAO,B,C,A,NAO
0,0,1,0,NAO,D,C,C,NAO
0,0,1,1,NAO,C,C,D,NAO
0,1,1,0,NAO,C,D,A,NAO
0,0,1,0,NAO,A,B,C,NAO
0,1,0,1,NAO,C,D,C,NAO
0,1,1,0,NAO,C,B,B,NAO
1,1,0,0,NAO,D,D,A,NAO
1,1,1,0,NAO,B,B,D,NAO
0,1,0,0,NAO,D,D,C,NAO
0,0,0,1,NAO,D,C,B,NAO
0,1,1,0,NAO,C,A,B,20Mais
0,1,1,0,ELEITO,A,A,D,20Mais
0,0,0,0,NAO,C,C,C,NAO
0,0,0,0,NAO,C,D,A,NAO
1,1,1,1,NAO,B,A,A,NAO
0,0,1,0,NAO,C,D,A,NAO
0,1,0,0,NAO,B,C,D,NAO
0,0,1,0,NAO,A,A,A,NAO
0,0,0,1,NAO,C,D,D,NAO
0,1,1,1,NAO,B,D,A,NAO
0,1,0,0,NAO,B,C,B,NAO
0,1,1,1,NAO,D,C,B,NAO
0,0,1,0,NAO,B,C,B,NAO
0,0,0,0,NAO,D,D,B,NAO
0,1,0,0,NAO,D,C,B,NAO
0,1,1,0,NAO,B,A,C,20Mais
0,1,0,1,NAO,D,D,C,NAO
0,1,0,0,NAO,B,B,D,NAO
0,1,0,0,NAO,D,C,C,NAO
0,0,1,1,NAO,C,C,A,NAO
1,1,0,0,NAO,B,D,D,NAO
0,1,1,0,ELEITO,B,A,B,20Mais
0,1,1,1,NAO,A,B,A,NAO
0,1,0,0,NAO,D,D,A,NAO
0,1,1,0,NAO,B,B,A,NAO
1,0,1,0,NAO,B,A,D,NAO
0,1,1,0,NAO,C,B,C,NAO
0,1,1,0,NAO,A,B,B,NAO
0,0,0,0,NAO,D,D,B,NAO
0,1,0,0,NAO,A,B,D,NAO
1,1,1,0,NAO,B,A,D,20Mais
1,1,0,0,NAO,B,A,B,20Mais
0,0,1,1,NAO,D,D,C,NAO
0,1,1,0,ELEITO,A,A,A,20Mais
0,1,0,0,NAO,D,C,B,NAO
0,1,1,0,NAO,C,D,C,NAO
0,0,0,0,NAO,D,D,A,NAO
0,1,1,0,NAO,A,B,C,NAO
0,1,0,0,NAO,B,B,A,NAO
1,1,0,0,ELEITO,A,A,C,20Mais
0,0,0,1,NAO,D,C,A,NAO
0,1,1,0,NAO,D,B,C,NAO
0,0,1,0,NAO,D,D,D,NAO
0,0,1,1,NAO,B,C,C,NAO
0,1,1,0,NAO,A,B,B,NAO
0,1,0,0,NAO,B,C,D,NAO
0,1,1,0,NAO,B,D,C,NAO
0,0,0,1,NAO,D,C,B,NAO
0,0,1,0,NAO,C,B,B,NAO
0,1,0,0,NAO,C,D,A,NAO
0,1,1,0,NAO,C,D,B,NAO
0,0,1,1,NAO,D,C,A,NAO
0,1,1,0,NAO,A,C,C,NAO
1,1,1,0,ELEITO,B,A,C,20Mais
0,1,1,0,NAO,B,C,C,NAO
0,1,1,0,NAO,C,C,C,NAO
0,1,0,0,NAO,B,B,C,NAO
0,1,0,0,NAO,B,B,A,NAO
0,1,0,0,NAO,C,C,C,NAO
1,1,1,0,ELEITO,B,A,C,20Mais
0,1,1,0,NAO,C,C,B,NAO
0,1,1,0,NAO,D,C,C,NAO
0,0,1,0,NAO,D,D,D,NAO
0,1,0,0,NAO,A,C,D,NAO
1,1,1,0,ELEITO,A,A,D,20Mais
0,1,1,0,NAO,A,B,D,NAO
0,1,0,0,NAO,A,B,D,NAO
0,1,0,0,ELEITO,A,A,A,20Mais
0,1,0,0,NAO,B,D,B,NAO
0,1,1,1,NAO,C,B,C,NAO
0,1,0,0,ELEITO,A,A,B,20Mais
0,1,1,0,NAO,D,B,B,NAO
0,1,1,1,NAO,B,B,A,NAO
1,1,1,0,ELEITO,A,A,B,20Mais
0,1,1,0,NAO,A,B,B,NAO
0,1,0,0,NAO,D,B,D,NAO
0,1,1,0,NAO,B,D,D,NAO
0,1,1,0,NAO,D,B,A,NAO
0,1,0,1,NAO,D,C,C,NAO
0,0,1,1,NAO,C,B,A,NAO
0,1,0,0,NAO,C,D,C,NAO
0,1,1,0,NAO,C,A,D,NAO
0,1,0,1,NAO,C,D,C,NAO
0,1,1,1,NAO,A,A,B,20Mais
0,1,0,0,NAO,B,B,B,20Mais
0,1,1,0,NAO,A,D,A,NAO
0,0,1,0,NAO,D,D,A,NAO
1,1,1,0,NAO,B,B,B,NAO
0,0,1,0,NAO,B,D,B,NAO
0,1,0,1,NAO,D,C,C,NAO
0,1,1,1,NAO,A,A,A,NAO
0,0,0,0,ELEITO,A,A,A,20Mais
0,1,0,1,NAO,D,C,D,NAO
0,1,0,0,NAO,B,A,A,20Mais
0,1,0,0,NAO,B,B,B,20Mais
0,1,0,1,ELEITO,A,A,B,20Mais
0,0,1,0,NAO,B,C,D,NAO
0,1,1,0,NAO,B,A,A,20Mais
0,1,1,0,NAO,C,A,B,20Mais
0,1,1,0,NAO,A,B,A,20Mais
0,1,1,0,NAO,B,C,B,NAO
0,0,0,1,NAO,C,D,D,NAO
0,0,0,1,NAO,D,C,C,NAO
0,0,0,1,NAO,D,D,C,NAO
0,1,1,1,NAO,A,A,B,20Mais
0,1,1,0,NAO,B,B,C,NAO
0,1,1,0,NAO,B,B,B,NAO
0,0,1,1,NAO,D,C,C,NAO
0,0,1,1,NAO,C,D,D,NAO
0,1,1,0,NAO,D,D,C,NAO
0,0,1,0,NAO,D,C,C,NAO
0,1,0,0,NAO,A,B,A,NAO
1,1,0,0,ELEITO,A,A,C,20Mais
1,1,0,0,NAO,D,C,D,NAO
0,0,0,1,NAO,D,D,B,NAO
1,1,1,0,NAO,C,B,B,NAO
0,1,0,0,NAO,D,C,D,NAO
0,0,0,1,NAO,C,D,B,NAO
0,1,1,0,NAO,C,B,C,NAO
0,0,1,1,NAO,C,D,C,NAO
0,0,1,0,NAO,B,A,A,NAO
0,1,0,0,NAO,A,A,C,20Mais
1,1,0,0,NAO,C,C,A,NAO
1,1,0,0,ELEITO,B,A,A,20Mais
0,1,0,0,NAO,B,D,B,NAO
0,1,1,0,NAO,C,B,A,NAO
0,1,0,0,NAO,A,A,C,20Mais
0,1,0,0,NAO,D,B,A,NAO
0,0,1,0,NAO,D,D,C,NAO
0,1,0,0,NAO,A,C,C,NAO
1,1,0,0,NAO,A,A,B,20Mais
1,1,1,0,ELEITO,A,A,B,20Mais
0,1,1,0,NAO,C,A,B,NAO
0,1,0,1,NAO,D,C,D,NAO
0,1,1,0,NAO,A,B,B,NAO
0,1,0,0,NAO,C,C,A,NAO
0,1,1,0,NAO,C,D,C,NAO
0,1,0,1,ELEITO,B,A,A,20Mais
0,1,0,0,NAO,D,C,B,NAO
1,1,1,0,NAO,B,C,C,NAO
1,1,0,0,NAO,A,C,A,NAO
0,1,0,1,NAO,C,C,D,NAO
1,1,1,0,ELEITO,A,A,C,20Mais
0,1,1,0,NAO,A,A,A,NAO
0,1,1,0,NAO,D,D,C,NAO
0,1,0,1,NAO,C,D,C,NAO
0,0,1,0,NAO,C,D,D,NAO
0,1,1,0,NAO,B,C,B,NAO
0,1,0,0,NAO,D,A,C,NAO
1,1,1,0,ELEITO,A,A,C,20Mais
0,0,0,0,NAO,D,D,A,NAO
0,1,1,1,NAO,C,B,A,NAO
0,1,0,1,NAO,D,D,C,NAO
0,1,0,1,NAO,C,B,D,NAO
0,1,1,0,NAO,C,D,A,NAO
0,1,0,0,NAO,B,A,B,20Mais
0,1,0,0,NAO,C,B,A,NAO
0,1,0,0,NAO,C,C,A,NAO
0,0,1,0,NAO,B,B,A,NAO
0,0,1,0,NAO,B,A,A,NAO
0,1,1,0,NAO,C,C,D,NAO
0,1,1,0,NAO,B,B,C,NAO
1,1,1,0,ELEITO,A,A,A,20Mais
0,1,1,0,NAO,A,D,A,NAO
0,1,1,0,NAO,A,A,C,NAO
0,1,0,0,ELEITO,C,A,B,20Mais
0,1,0,1,NAO,A,B,B,NAO
1,1,1,0,NAO,C,B,B,NAO
0,0,1,0,NAO,D,C,B,NAO
1,1,0,1,NAO,C,B,B,NAO
