@relation 'eleicoes-mt'
@attribute politico	{0,1}
@attribute homem {0,1}	
@attribute superior {0,1}
@attribute solteiro {0,1}
@attribute faixa1 {A,B,C,D}
@attribute faixa2 {A,B,C,D}
@attribute faixa3 {A,B,C,D}
@attribute class {ELEITO , NAO}
@data
1,1,1,0,A,A,A,NAO
0,1,1,0,A,A,A,ELEITO
0,1,0,0,B,C,A,NAO
0,1,1,0,C,C,A,NAO
0,1,0,0,C,B,A,NAO
0,1,1,0,C,C,A,NAO
0,1,1,0,B,C,B,NAO
0,1,1,0,A,A,B,NAO
0,1,0,1,B,A,B,ELEITO
0,1,1,0,D,C,C,NAO
0,1,0,1,A,B,B,NAO
0,0,0,1,D,C,D,NAO
0,1,0,0,D,B,C,NAO
0,1,1,0,A,A,A,NAO
0,1,1,1,B,D,B,NAO
0,0,0,0,C,B,C,NAO
0,0,1,0,B,D,B,NAO
0,0,1,0,C,B,C,NAO
0,1,0,0,B,B,C,NAO
0,1,0,0,C,C,C,NAO
0,1,0,0,C,D,D,NAO
0,1,0,1,B,B,B,NAO
0,1,0,0,A,A,B,NAO
0,1,1,0,B,C,C,NAO
0,1,0,0,D,D,B,NAO
0,1,1,0,B,C,B,NAO
0,0,1,0,A,A,A,ELEITO
0,1,1,0,A,A,B,NAO
0,1,1,0,A,D,B,NAO
0,1,1,1,D,D,D,NAO
1,1,1,0,C,A,A,NAO
0,1,0,1,C,C,C,NAO
0,0,1,0,D,D,C,NAO
1,0,0,0,D,B,A,NAO
1,1,0,0,D,B,D,NAO
0,1,1,0,A,B,A,NAO
0,0,1,0,A,D,B,NAO
0,1,1,0,A,A,A,NAO
0,1,1,0,A,B,A,NAO
1,1,1,1,B,A,B,ELEITO
0,1,1,0,A,A,A,NAO
0,1,1,0,A,A,A,NAO
0,1,1,0,D,D,A,NAO
0,0,0,1,D,D,C,NAO
0,1,1,0,C,B,A,NAO
0,1,1,0,B,C,A,NAO
0,0,1,0,D,C,C,NAO
0,0,1,1,C,C,D,NAO
0,1,1,0,C,D,A,NAO
0,0,1,0,A,B,C,NAO
0,1,0,1,C,D,C,NAO
0,1,1,0,C,B,B,NAO
1,1,0,0,D,D,A,NAO
1,1,1,0,B,B,D,NAO
0,1,0,0,D,D,C,NAO
0,0,0,1,D,C,B,NAO
0,1,1,0,C,A,B,NAO
0,1,1,0,A,A,D,ELEITO
0,0,0,0,C,C,C,NAO
0,0,0,0,C,D,A,NAO
1,1,1,1,B,A,A,NAO
0,0,1,0,C,D,A,NAO
0,1,0,0,B,C,D,NAO
0,0,1,0,A,A,A,NAO
0,0,0,1,C,D,D,NAO
0,1,1,1,B,D,A,NAO
0,1,0,0,B,C,B,NAO
0,1,1,1,D,C,B,NAO
0,0,1,0,B,C,B,NAO
0,0,0,0,D,D,B,NAO
0,1,0,0,D,C,B,NAO
0,1,1,0,B,A,C,NAO
0,1,0,1,D,D,C,NAO
0,1,0,0,B,B,D,NAO
0,1,0,0,D,C,C,NAO
0,0,1,1,C,C,A,NAO
1,1,0,0,B,D,D,NAO
0,1,1,0,B,A,B,ELEITO
0,1,1,1,A,B,A,NAO
0,1,0,0,D,D,A,NAO
0,1,1,0,B,B,A,NAO
1,0,1,0,B,A,D,NAO
0,1,1,0,C,B,C,NAO
0,1,1,0,A,B,B,NAO
0,0,0,0,D,D,B,NAO
0,1,0,0,A,B,D,NAO
1,1,1,0,B,A,D,NAO
1,1,0,0,B,A,B,NAO
0,0,1,1,D,D,C,NAO
0,1,1,0,A,A,A,ELEITO
0,1,0,0,D,C,B,NAO
0,1,1,0,C,D,C,NAO
0,0,0,0,D,D,A,NAO
0,1,1,0,A,B,C,NAO
0,1,0,0,B,B,A,NAO
1,1,0,0,A,A,C,ELEITO
0,0,0,1,D,C,A,NAO
0,1,1,0,D,B,C,NAO
0,0,1,0,D,D,D,NAO
0,0,1,1,B,C,C,NAO
0,1,1,0,A,B,B,NAO
0,1,0,0,B,C,D,NAO
0,1,1,0,B,D,C,NAO
0,0,0,1,D,C,B,NAO
0,0,1,0,C,B,B,NAO
0,1,0,0,C,D,A,NAO
0,1,1,0,C,D,B,NAO
0,0,1,1,D,C,A,NAO
0,1,1,0,A,C,C,NAO
1,1,1,0,B,A,C,ELEITO
0,1,1,0,B,C,C,NAO
0,1,1,0,C,C,C,NAO
0,1,0,0,B,B,C,NAO
0,1,0,0,B,B,A,NAO
0,1,0,0,C,C,C,NAO
1,1,1,0,B,A,C,ELEITO
0,1,1,0,C,C,B,NAO
0,1,1,0,D,C,C,NAO
0,0,1,0,D,D,D,NAO
0,1,0,0,A,C,D,NAO
1,1,1,0,A,A,D,ELEITO
0,1,1,0,A,B,D,NAO
0,1,0,0,A,B,D,NAO
0,1,0,0,A,A,A,ELEITO
0,1,0,0,B,D,B,NAO
0,1,1,1,C,B,C,NAO
0,1,0,0,A,A,B,ELEITO
0,1,1,0,D,B,B,NAO
0,1,1,1,B,B,A,NAO
1,1,1,0,A,A,B,ELEITO
0,1,1,0,A,B,B,NAO
0,1,0,0,D,B,D,NAO
0,1,1,0,B,D,D,NAO
0,1,1,0,D,B,A,NAO
0,1,0,1,D,C,C,NAO
0,0,1,1,C,B,A,NAO
0,1,0,0,C,D,C,NAO
0,1,1,0,C,A,D,NAO
0,1,0,1,C,D,C,NAO
0,1,1,1,A,A,B,NAO
0,1,0,0,B,B,B,NAO
0,1,1,0,A,D,A,NAO
0,0,1,0,D,D,A,NAO
1,1,1,0,B,B,B,NAO
0,0,1,0,B,D,B,NAO
0,1,0,1,D,C,C,NAO
0,1,1,1,A,A,A,NAO
0,0,0,0,A,A,A,ELEITO
0,1,0,1,D,C,D,NAO
0,1,0,0,B,A,A,NAO
0,1,0,0,B,B,B,NAO
0,1,0,1,A,A,B,ELEITO
0,0,1,0,B,C,D,NAO
0,1,1,0,B,A,A,NAO
0,1,1,0,C,A,B,NAO
0,1,1,0,A,B,A,NAO
0,1,1,0,B,C,B,NAO
0,0,0,1,C,D,D,NAO
0,0,0,1,D,C,C,NAO
0,0,0,1,D,D,C,NAO
0,1,1,1,A,A,B,NAO
0,1,1,0,B,B,C,NAO
0,1,1,0,B,B,B,NAO
0,0,1,1,D,C,C,NAO
0,0,1,1,C,D,D,NAO
0,1,1,0,D,D,C,NAO
0,0,1,0,D,C,C,NAO
0,1,0,0,A,B,A,NAO
1,1,0,0,A,A,C,ELEITO
1,1,0,0,D,C,D,NAO
0,0,0,1,D,D,B,NAO
1,1,1,0,C,B,B,NAO
0,1,0,0,D,C,D,NAO
0,0,0,1,C,D,B,NAO
0,1,1,0,C,B,C,NAO
0,0,1,1,C,D,C,NAO
0,0,1,0,B,A,A,NAO
0,1,0,0,A,A,C,NAO
1,1,0,0,C,C,A,NAO
1,1,0,0,B,A,A,ELEITO
0,1,0,0,B,D,B,NAO
0,1,1,0,C,B,A,NAO
0,1,0,0,A,A,C,NAO
0,1,0,0,D,B,A,NAO
0,0,1,0,D,D,C,NAO
0,1,0,0,A,C,C,NAO
1,1,0,0,A,A,B,NAO
1,1,1,0,A,A,B,ELEITO
0,1,1,0,C,A,B,NAO
0,1,0,1,D,C,D,NAO
0,1,1,0,A,B,B,NAO
0,1,0,0,C,C,A,NAO
0,1,1,0,C,D,C,NAO
0,1,0,1,B,A,A,ELEITO
0,1,0,0,D,C,B,NAO
1,1,1,0,B,C,C,NAO
1,1,0,0,A,C,A,NAO
0,1,0,1,C,C,D,NAO
1,1,1,0,A,A,C,ELEITO
0,1,1,0,A,A,A,NAO
0,1,1,0,D,D,C,NAO
0,1,0,1,C,D,C,NAO
0,0,1,0,C,D,D,NAO
0,1,1,0,B,C,B,NAO
0,1,0,0,D,A,C,NAO
1,1,1,0,A,A,C,ELEITO
0,0,0,0,D,D,A,NAO
0,1,1,1,C,B,A,NAO
0,1,0,1,D,D,C,NAO
0,1,0,1,C,B,D,NAO
0,1,1,0,C,D,A,NAO
0,1,0,0,B,A,B,NAO
0,1,0,0,C,B,A,NAO
0,1,0,0,C,C,A,NAO
0,0,1,0,B,B,A,NAO
0,0,1,0,B,A,A,NAO
0,1,1,0,C,C,D,NAO
0,1,1,0,B,B,C,NAO
1,1,1,0,A,A,A,ELEITO
0,1,1,0,A,D,A,NAO
0,1,1,0,A,A,C,NAO
0,1,0,0,C,A,B,ELEITO
0,1,0,1,A,B,B,NAO
1,1,1,0,C,B,B,NAO
0,0,1,0,D,C,B,NAO
1,1,0,1,C,B,B,NAO
